

 .----------------.  .----------------.  .-----------------. .----------------.  .----------------.
| .--------------. || .--------------. || .--------------. || .--------------. || .--------------. |
| | ____    ____ | || |     ____     | || | ____  _____  | || |    ______    | || |  ____  ____  | |
| ||_   \  /   _|| || |   .'    '.   | || ||_   \|_   _| | || |   / ____ `.  | || | |_  _||_  _| | |
| |  |   \/   |  | || |  |  .--.  |  | || |  |   \ | |   | || |   `'  __) |  | || |   \ \  / /   | |
| |  | |\  /| |  | || |  | |    | |  | || |  | |\ \| |   | || |   _  |__ '.  | || |    > `' <    | |
| | _| |_\/_| |_ | || |  |  `--'  |  | || | _| |_\   |_  | || |  | \____) |  | || |  _/ /'`\ \_  | |
| ||_____||_____|| || |   '.____.'   | || ||_____|\____| | || |   \______.'  | || | |____||____| | |
| |              | || |              | || |              | || |              | || |              | |
| '--------------' || '--------------' || '--------------' || '--------------' || '--------------' |
 '----------------'  '----------------'  '----------------'  '----------------'  '----------------'

